{"properties": [
  {
    "name": "jwt.security.key",
    "type": "java.lang.String"
  },
  {
    "name": "hystrix.command.default.execution.isolation.thread.timeoutInMilliseconds",
    "type": "java.lang.Long"
  },
  {
    "name": "ribbon.ReadTimeout",
    "type": "java.lang.String",
    "description": "A description for 'ribbon.ReadTimeout'"
  },
  {
    "name": "ribbon.ConnectTimeout",
    "type": "java.lang.String",
    "description": "A description for 'ribbon.ConnectTimeout'"
  }
]}